-------------------------------------------------------------------------------
Test set: lebcir.ilies.com.AppTest
-------------------------------------------------------------------------------
Tests run: 1, Failures: 1, Errors: 0, Skipped: 0, Time elapsed: 0.008 sec <<< FAILURE!
testApp(lebcir.ilies.com.AppTest)  Time elapsed: 0.005 sec  <<< FAILURE!
junit.framework.AssertionFailedError
	at junit.framework.Assert.fail(Assert.java:47)
	at junit.framework.Assert.assertTrue(Assert.java:20)
	at junit.framework.Assert.assertTrue(Assert.java:27)
	at lebcir.ilies.com.AppTest.testApp(AppTest.java:36)

